2101.76.1,VC B1 in EBS1 low
2101.80.81,VC B1 out MCS
2103.16.1,VC A3 in CI5
2103.20.1,Scanner C
2103.26.00,Length scan C
2103.26.99,Length scan C
2103.28.00,Screening 1/2 C
2103.28.3,Screening 1/2 C
2103.28.5,Screening 1/2 C
2103.28.99,Screening 1/2 C
2103.3.00,CI 5
2103.3.2,CI 5
2103.3.3,CI 5
2103.32.1,VC B3 from Screening 1/2 C
2103.46.81,VC B3 from problem bag area
2201.12.1,after VC C
2201.16.1,VC D from VC C
2201.16.80,VC D to VC E
2201.20.80,VC E from VC D
2201.4.2,merge before VC C from VC B2
2201.8.1,VC C from merge
2201.8.80,VC C to divert VC C/Sorter
2202.12.80,VC D from MC
2202.26.80,VC E to divert VC F/QTB Make-up
2202.34.1,VC F from VC E
2202.38.1,divert to EBS
2202.4.80,VC C from VC B1/VC B2
2202.4.81,to MC area
2202.8.00,MC area
2202.8.83,MC area
2202.8.86,MC area to VC D
2401.54.2,to EBS lower
2401.58.21,EBS lower to VC B1
