71.31.2,C1,Chute 1
71.32.2,C2,Chute 2
71.33.2,C3,Chute 3
71.34.2,C4,Chute 4
71.35.2,C5,Chute 5
71.36.2,C6,Chute 6
71.37.2,C7,Chute 7
71.38.2,C8,Chute 8
71.39.2,C9,Chute 9
71.40.2,C10,Chute 10
71.41.2,C11,Chute 11
71.42.2,C12,Chute 12
71.43.2,C13,Chute 13
71.44.2,C14,Chute 14
71.45.2,C15,Chute 15
71.46.2,C16,Chute 16
71.47.2,C17,Chute 17
71.48.2,C18,Chute 18
71.49.2,C19,Chute 19
71.50.2,C20,Chute 20
71.51.2,C21,Chute 21
71.52.2,C22,Chute 22
71.53.2,C23,Chute 23
71.54.2,C24,Chute 24
71.55.2,C25,Chute 25
71.56.2,C26,Chute 26
71.22.2,CARA,Carousel A (via sorter exit 31)
71.23.2,CARB,Carousel B (via sorter exit 32)
71.24.2,CARC,Carousel C (via sorter exit 33)
61.3.,EBS1,EBS - lane 1
61.7.,EBS2,EBS - lane 2
61.15.,EBS3,EBS - lane 3
61.19.,EBS4,EBS - lane 4
61.27.,EBS5,EBS - lane 5
61.31.,EBS6,EBS - lane 6
61.39.,EBS7,EBS - lane 7
61.43.,EBS8,EBS - lane 8
71.82.2,C_L3/4,Chute to HBS-3/4
71.21.2,C_MCS,Chute to MCS
61.71.1,CARA,Carousel A (via luffer from EBS)
12.23.1,CARA,Carousel A (via luffer from CI-A)
24.31.1,CARB,Carousel B (via luffer from TR-A)
32.29.1,CARC,Carousel C (via luffer from CI-C)
42.23.1,CARC,Carousel C (via luffer from CI-D)
51.41.9,SICS_out,Manual Inspection - SICS at output
51.41.1,MANINSP,Manual Inspection - take-off point
51.47.9,SICS_in,Manual Inspection - SICS at input
61.65.9,MCS,Manual Coding Station
12.5.13,Reg_CI_A,Check-In line A - registration point
22.11.1,Reg_CI_B,Check-In line B - registration point
24.3.9,Reg_Tr_A,Transfer line A - registration point
32.9.1,Reg_CI_C,Check-In line C - registration point
42.5.5,Reg_CI_D,Check-In line D - registration point
61.53.1,Reg_EBS,EBS return line - registration point
51.47.1,Reg_MI,Manual Inspection - registration point
12.7.90,ATR_CI_A,Check-In line A - scanner
22.13.9,ATR_CI_B,Check-In line B - scanner
24.5.90,ATR_Tr_A,Transfer line A - scanner
32.11.9,ATR_CI_C,Check-In line C - scanner
42.7.90,ATR_CI_D,Check-In line D - scanner
71.1.90,ATR_SRTR,Sorter - scanner
12.9.90,HBSCIA,Check-In line A - HBS level 1/2
22.15.9,HBSCIB,Check-In line B - HBS level 1/2
24.7.90,HBSTRA,Transfer line A - HBS level 1/2
32.13.9,HBSCIC,Check-In line C - HBS level 1/2
42.9.90,HBSCID,Check-In line D - HBS level 1/2
51.23.9,HBS34A,HBS level 3/4 - machine A
51.31.9,HBS34B,HBS level 3/4 - machine B
12.13.1,VS_CI_A,Check-In line A - VertiSorter
22.19.1,VS_CI_B,Check-In line B - VertiSorter
24.11.1,VS_Tr_A,Transfer line A - VertiSorter
32.17.1,VS_CI_C,Check-In line C - VertiSorter
42.13.1,VS_CI_D,Check-In line D - VertiSorter
22.23.3,VB_CI_ B,Check-In line B - VertiBelt to transfer line
51.1.1,I_CIAL34,HBS level 3/4 - handover from Check-In line A
51.3.1,I_CIBL34,HBS level 3/4 - handover from Check-In line B
51.5.1,I_TAL34,HBS level 3/4 - handover from Transfer line A
51.9.1,I_CICL34,HBS level 3/4 - handover from Check-In line C
51.7.1,I_CIDL34,HBS level 3/4 - handover from Check-In line D
71.17.1,I_CIASRT,Sorter - handover from Check-In line A
71.16.1,I_CIBSRT,Sorter - handover from Check-In line B
71.15.1,I_TASRT,Sorter - handover from Transfer line A
71.13.1,I_CIC_SRT,Sorter - handover from Check-In line C
71.12.1,I_CIDSRT,Sorter - handover from Check-In line D
71.18.1,I_EBSSRT,Sorter - handover from EBS/NCS return line
24.29.1,I_L34TA,Transfer line A - handover from HBS level 3/4
51.49.1,I_SRT_L34,HBS level 3/4 - handover from Sorter
61.63.1,I_SRTMCS,Manual Coding - handover from Sorter
51.17.1,VB_L34A,HBS level 3/4 - VertiBelt to machine A
51.19.1,VB_L34B,HBS level 3/4 - VertiBelt to machine B
51.39.1,VB_MI,HBS level 3/4 - VertiBelt to Manual Inspection
61.59.1,LUF_EBS,EBS/MCS return line - luffer
12.17.1,LUF_CI_A,Check-In line A - luffer
24.23.1,LUF_TR_A,Transfer line A - luffer
32.21.1,LUF_CI_C,Check-In line C - luffer
42.17.1,LUF_CI_D,Check-In line D - luffer
71.31.1,C1,Sorter - divert chute 1
71.32.1,C2,Sorter - divert chute 2
71.33.1,C3,Sorter - divert chute 3
71.34.1,C4,Sorter - divert chute 4
71.35.1,C5,Sorter - divert chute 5
71.36.1,C6,Sorter - divert chute 6
71.37.1,C7,Sorter - divert chute 7
71.38.1,C8,Sorter - divert chute 8
71.39.1,C9,Sorter - divert chute 9
71.40.1,C10,Sorter - divert chute 10
71.41.1,C11,Sorter - divert chute 11
71.42.1,C12,Sorter - divert chute 12
71.43.1,C13,Sorter - divert chute 13
71.44.1,C14,Sorter - divert chute 14
71.45.1,C15,Sorter - divert chute 15
71.46.1,C16,Sorter - divert chute 16
71.47.1,C17,Sorter - divert chute 17
71.48.1,C18,Sorter - divert chute 18
71.49.1,C19,Sorter - divert chute 19
71.50.1,C20,Sorter - divert chute 20
71.51.1,C21,Sorter - divert chute 21
71.52.1,C22,Sorter - divert chute 22
71.53.1,C23,Sorter - divert chute 23
71.54.1,C24,Sorter - divert chute 24
71.55.1,C25,Sorter - divert chute 25
71.56.1,C26,Sorter - divert chute 26
71.22.1,CARA,Sorter - divert carousel A
71.23.1,CARB,Sorter - divert carousel B
71.24.1,CARC,Sorter - divert carousel C
71.59.1,EBS1,Sorter - divert EBS lane 1
71.57.1,EBS2,Sorter - divert EBS lane 2
71.60.1,EBS3,Sorter - divert EBS lane 3
71.58.1,EBS4,Sorter - divert EBS lane 4
71.62.1,EBS5,Sorter - divert EBS lane 5
71.61.1,EBS6,Sorter - divert EBS lane 6
71.64.1,EBS7,Sorter - divert EBS lane 7
71.63.1,EBS8,Sorter - divert EBS lane 8
71.82.1,C_L3/4,Sorter - divert to HBS-3/4
71.21.1,C_MCS,Sorter - divert to MCS
10..,LOST,PLC 1 - Unknown (area 10)
12..,LOST,Check-In line A - Unknown (area 12)
20..,LOST,PLC 2 - Unknown (area 20)
22..,LOST,Check-In line B - Unknown (area 22)
24..,LOST,Transfer line A - Unknown (area 24)
30..,LOST,PLC 3 - Unknown (area 30)
32..,LOST,Check-In line C - Unknown (area 32)
40..,LOST,PLC 4 - Unknown (area 40)
42..,LOST,Check-In line D - Unknown (area 42)
50..,LOST,PLC 5 - Unknown (area 50)
51..,LOST,HBS level 3/4 - Unknown (area 51)
60..,LOST,PLC 6 - Unknown (area 60)
61..,LOST,EBS/MCS return line - Unknown (area 61)
71..,LOST,Sorter - Unknown (area 71)
32.11.90,ATR HBS CI-C,Scanner before Screening Check-in C
32.13.90,HBS CI-C,HoldBaggageScreening Check-in C
51.15.3,Divert L3/4 A,Divert before Level 3/4 Screening A

